module toDo

go 1.18

require (
	github.com/jinzhu/gorm v1.9.16
	github.com/joho/godotenv v1.4.0
	github.com/labstack/echo/v4 v4.7.2
	github.com/labstack/gommon v0.3.1
	github.com/lib/pq v1.10.6
	github.com/stretchr/testify v1.7.0
	github.com/swaggo/echo-swagger v1.3.3
	github.com/swaggo/swag v1.8.3
)

require (
	github.com/KyleBanks/depth v1.2.1 // indirect
	github.com/davecgh/go-spew v1.1.1 // indirect
	github.com/go-openapi/jsonpointer v0.19.5 // indirect
	github.com/go-openapi/jsonreference v0.20.0 // indirect
	github.com/go-openapi/spec v0.20.6 // indirect
	github.com/go-openapi/swag v0.21.1 // indirect
	github.com/golang-jwt/jwt v3.2.2+incompatible // indirect
	github.com/jinzhu/inflection v1.0.0 // indirect
	github.com/jinzhu/now v1.1.4 // indirect
	github.com/josharian/intern v1.0.0 // indirect
	github.com/mailru/easyjson v0.7.7 // indirect
	github.com/mattn/go-colorable v0.1.12 // indirect
	github.com/mattn/go-isatty v0.0.14 // indirect
	github.com/pmezard/go-difflib v1.0.0 // indirect
	github.com/swaggo/files v0.0.0-20220610200504-28940afbdbfe // indirect
	github.com/valyala/bytebufferpool v1.0.0 // indirect
	github.com/valyala/fasttemplate v1.2.1 // indirect
	golang.org/x/crypto v0.0.0-20220525230936-793ad666bf5e // indirect
	golang.org/x/net v0.0.0-20220621193019-9d032be2e588 // indirect
	golang.org/x/sys v0.0.0-20220615213510-4f61da869c0c // indirect
	golang.org/x/text v0.3.7 // indirect
	golang.org/x/time v0.0.0-20201208040808-7e3f01d25324 // indirect
	golang.org/x/tools v0.1.11 // indirect
	gopkg.in/yaml.v2 v2.4.0 // indirect
	gopkg.in/yaml.v3 v3.0.0-20210107192922-496545a6307b // indirect
)
